module backend

go 1.17

retract v1.7.5

require (
	github.com/Bisstocuz/gin v1.7.6
	github.com/lib/pq v1.10.4
)

require (
	github.com/gin-contrib/sse v0.1.0 // indirect
	github.com/go-playground/locales v0.14.0 // indirect
	github.com/go-playground/universal-translator v0.18.0 // indirect
	github.com/go-playground/validator/v10 v10.9.0 // indirect
	github.com/golang/protobuf v1.5.2 // indirect
	github.com/json-iterator/go v1.1.12 // indirect
	github.com/leodido/go-urn v1.2.1 // indirect
	github.com/mattn/go-isatty v0.0.14 // indirect
	github.com/modern-go/concurrent v0.0.0-20180306012644-bacd9c7ef1dd // indirect
	github.com/modern-go/reflect2 v1.0.2 // indirect
	github.com/ugorji/go/codec v1.2.6 // indirect
	golang.org/x/crypto v0.0.0-20211117183948-ae814b36b871 // indirect
	golang.org/x/sys v0.0.0-20211123173158-ef496fb156ab // indirect
	golang.org/x/text v0.3.7 // indirect
	google.golang.org/protobuf v1.27.1 // indirect
	gopkg.in/yaml.v2 v2.4.0 // indirect
)
